{
	"info": {
		"_postman_id": "bf50933d-f52c-4286-a3d5-b0f8973aa738",
		"name": "Flask API",
		"schema": "https://schema.getpostman.com/json/collection/v2.1.0/collection.json"
	},
	"item": [
		{
			"name": "Healthcheck",
			"request": {
				"method": "GET",
				"header": [],
				"url": {
					"raw": "127.0.0.1:5000/api/v1/healthcheck",
					"host": [
						"127",
						"0",
						"0",
						"1"
					],
					"port": "5000",
					"path": [
						"api",
						"v1",
						"healthcheck"
					]
				}
			},
			"response": []
		},
		{
			"name": "Hello World",
			"request": {
				"method": "GET",
				"header": [],
				"url": {
					"raw": "127.0.0.1:5000/api/v1/hello_world",
					"host": [
						"127",
						"0",
						"0",
						"1"
					],
					"port": "5000",
					"path": [
						"api",
						"v1",
						"hello_world"
					]
				}
			},
			"response": []
		},
		{
			"name": "Login",
			"request": {
				"method": "POST",
				"header": [],
				"body": {
					"mode": "formdata",
					"formdata": [
						{
							"key": "username",
							"value": "jeet",
							"type": "text"
						}
					]
				},
				"url": {
					"raw": "127.0.0.1:5000/api/v1/login",
					"host": [
						"127",
						"0",
						"0",
						"1"
					],
					"port": "5000",
					"path": [
						"api",
						"v1",
						"login"
					]
				}
			},
			"response": []
		}
	]
}